build/test/runners/test_MMA8451Q_PRIVATE_runner.c:19:13:CMock_Init	4	static
build/test/runners/test_MMA8451Q_PRIVATE_runner.c:25:13:CMock_Verify	4	static
build/test/runners/test_MMA8451Q_PRIVATE_runner.c:28:13:CMock_Destroy	4	static
build/test/runners/test_MMA8451Q_PRIVATE_runner.c:33:6:setUp	4	static
build/test/runners/test_MMA8451Q_PRIVATE_runner.c:36:6:tearDown	4	static
build/test/runners/test_MMA8451Q_PRIVATE_runner.c:40:6:resetTest	8	static
build/test/runners/test_MMA8451Q_PRIVATE_runner.c:49:6:verifyTest	8	static
build/test/runners/test_MMA8451Q_PRIVATE_runner.c:55:13:run_test	24	static
build/test/runners/test_MMA8451Q_PRIVATE_runner.c:83:5:main	8	static
